{
    "arrowParens": "avoid",
    "bracketSpacing": true,
    "jsxBracketSameLine": false,
    "jsxSingleQuote": false,
    "printWidth": 135,
    "semi": false,
    "singleQuote": true,
    "useTabs": false,
    "tabWidth": 2,
    "trailingComma": "all"
}
